{
    "prosun015@outlook.com": {
        "Last check": "2023-05-04",
        "Today's points": 55,
        "Points": 840
    },
    "prosun016@outlook.com": {
        "Last check": "2023-05-04",
        "Today's points": 55,
        "Points": 860
    },
    "prosun017@outlook.com": {
        "Last check": "2023-05-04",
        "Today's points": 0,
        "Points": 965
    },
    "Elapsed time": "00:16:39"
}